…
fairy_rawscore <- calculate_textplex(fairy$text, udpipe_model)

fit <- fit_two_factor_model(fairy_rawscore)
```

    ## Loading required namespace: GPArotation

``` r
fairy$syntactic_complexity <- fit$scores[,1]
fairy$semantic_complexity <- fit$scores[,2]

fairy %>% arrange(desc(syntactic_complexity)) %>% select(book, syntactic_complexity)
```

    ## # A tibble: 50 x 2
    ##    book                              syntactic_complexity
    ##    <chr>                                            <dbl>
    ##  1 Holger Danske                                    2.83 
    ##  2 At the uttermost parts of the sea                2.13 
    ##  3 The bell                                         1.59 
    ##  4 The angel                                        1.35 
    ##  5 A picture from the ramparts                      1.29 
    ##  6 A rose from Homer's grave                        1.22 
    ##  7 Grandmother                                      0.986
    ##  8 Ole the tower-keeper                             0.949
    ##  9 Soup from a sausage skewer                       0.895
    ## 10 A cheerful temper                                0.813
    ## # … with 40 more rows
